i|1|उत्पत्ति|उत्प.
i|2|निर्गमन|निर्ग.
i|3|लैव्यव्यवस्था|लैव्य.
i|4|गिनती|गिन.
i|5|व्यवस्थाविवरण|व्य.
i|6|यहोशू|यहो.
i|7|न्यायियों|न्याय.
i|8|रूत|रूत.
i|9|1शमूएल|1शमू.
i|10|2शमूएल|2शमू.
i|11|1राजाओं|1राजा.
i|12|2राजाओं|2राजा.
i|13|1इतिहास|1इति.
i|14|2इतिहास|2इति.
i|15|एज्रा|एज्रा
i|16|नेहम्याह|नहे.
i|17|एस्तेर|एस्ते.
i|18|अय्यूब|अय्यू.
i|19|भजन-संहिता|भजन.
i|20|नीतिवचन|नीति.
i|21|सभोपदेशक|सभो.
i|22|श्रेष्ठगीत|श्रेष्ठ.
i|23|यशायाह|यशा.
i|24|यिर्मयाह|यिर्म.
i|25|विलापगीत|विला.
i|26|यहेजकेल|यहेज.
i|27|दानिय्येल|दानि.
i|28|होशे|होशे.
i|29|योएल|योए.
i|30|आमोस|आमो.
i|31|ओबद्दाह|ओब.
i|32|योना|योना.
i|33|मीका|मीका.
i|34|नहूम|नहू.
i|35|हबक्कूक|हब.
i|36|सपन्याह|सोप.
i|37|हाग्गै|हाग्गै.
i|38|जकर्याह|जक.
i|39|मलाकी|मला.
i|40|मत्ती|मत्ती.
i|41|मरकुस|मर.
i|42|लूका|लूका.
i|43|यूहत्रा|यूह.
i|44|प्रेरितों-के-कामों|प्रेरि.
i|45|रोमियों|रोम.
i|46|1कुरिन्थियों|1कुरि.
i|47|2कुरिन्थियों|2कुरि.
i|48|गलातियों|गल.
i|49|इफ़िसियों|इफि.
i|50|फिलिप्पियों|फिलि.
i|51|कुलुस्सियों|कुलु.
i|52|1थिस्सलुनीकियों|1थिस्स.
i|53|2थिस्सलुनीकियों|2थिस्स.
i|54|1तीमोथियुस|1तीमु.
i|55|2तीमोथियुस|2तीमु.
i|56|तीतुस|तीतुस
i|57|फिलोमोन|फिले.
i|58|इब्रानियों|इब्र.
i|59|याकूब|याकू.
i|60|1पतरस|1पत.
i|61|2पतरस|2पत.
i|62|1यूहत्रा|1यूह.
i|63|2यूहत्रा|2यूह.
i|64|3यूहत्रा|3यूह.
i|65|यहूदा|यहूदा.
i|66|प्रकाशितवाक्य|प्रका.
